%YAML 1.1
%TAG !u! tag:unity3d.com,2011:
--- !u!1045 &1
EditorBuildSettings:
  m_ObjectHideFlags: 0
  serializedVersion: 2
  m_Scenes:
  - enabled: 1
    path: Assets/Scenes/StartingMenu.unity
    guid: ee360f2974b947040bf5f19140968947
  - enabled: 1
    path: Assets/Scenes/NorrlandMainScene.unity
    guid: 6d4045b6fe2b17940960a97a1ac84809
  m_configObjects: {}
